{
  "extends": "../tslint.json",
  "rules": {
    "directive-selector": [true, "attribute", "app", "camelCase"],
    "component-selector": [true, "element", "app", "kebab-case"]
    // "ordered-imports": [
    //   true,
    //   {
    //     "import-sources-order": "case-insensitive",
    //     "named-imports-order": "case-insensitive",
    //     "grouped-imports": false
    //   }
    // ]
  }
}
